<svg width="18" height="18" viewBox="0 0 18 18" fill="none" xmlns="http://www.w3.org/2000/svg">
<mask id="mask0_10_970" style="mask-type:alpha" maskUnits="userSpaceOnUse" x="0" y="0" width="18" height="18">
<rect width="18" height="18" fill="#D9D9D9"/>
</mask>
<g mask="url(#mask0_10_970)">
<path d="M9.00391 14.998L7.93516 13.948L12.1352 9.74805H3.00391V8.24805H12.1352L7.93516 4.04805L9.00391 2.99805L15.0039 8.99805L9.00391 14.998Z" fill="#E22127"/>
</g>
</svg>
