<svg width="19" height="14" viewBox="0 0 19 14" fill="none" xmlns="http://www.w3.org/2000/svg">
<g clip-path="url(#clip0_42_4519)">
<path d="M12.7 0.2C12.5 0 12.2 0 12 0C11.8 0.1 11.6 0.3 11.6 0.5V3.4H9.9C4.4 3.5 0 7.9 0 13.4C0 13.7 0.2 13.9 0.4 14C0.5 14 0.5 14 0.6 14C0.8 14 1 13.9 1.1 13.7L1.3 13.4C2.9 10.9 5.7 9.3 8.7 9.3H11.7V12.2C11.7 12.4 11.8 12.6 12.1 12.7C12.3 12.8 12.6 12.7 12.7 12.6L18.5 6.8C18.7 6.6 18.7 6.2 18.5 6L12.7 0.2ZM12.8 10.8V8.8C12.8 8.5 12.5 8.2 12.2 8.2H8.7C5.9 8.2 3.3 9.4 1.5 11.4C2.4 7.6 5.9 4.7 10 4.7H12.3C12.6 4.7 12.9 4.4 12.9 4.1V2L17.3 6.4L12.8 10.8Z" fill="#9F9F9F"/>
</g>
<defs>
<clipPath id="clip0_42_4519">
<rect width="18.7" height="14" fill="white"/>
</clipPath>
</defs>
</svg>
